<?xml version="1.0" standalone="no"?>
<!DOCTYPE svg PUBLIC "-//W3C//DTD SVG 1.1//EN" "http://www.w3.org/Graphics/SVG/1.1/DTD/svg11.dtd" >
<svg xmlns="http://www.w3.org/2000/svg">
<metadata>
Created by FontForge 20110222 at Tue Apr  9 17:22:29 2013
 By root
Copyright (C) 2012 by original authors @ fontello.com
</metadata>
<defs>
<font id="fontello" horiz-adv-x="364" >
  <font-face 
    font-family="fontello"
    font-weight="500"
    font-stretch="normal"
    units-per-em="1000"
    panose-1="2 0 6 3 0 0 0 0 0 0"
    ascent="850"
    descent="-150"
    bbox="0 -84.5789 1086 791"
    underline-thickness="50"
    underline-position="-100"
    unicode-range="U+270E-E800"
  />
<missing-glyph 
d="M33 0v666h265v-666h-265zM66 33h199v600h-199v-600z" />
    <glyph glyph-name=".notdef" 
d="M33 0v666h265v-666h-265zM66 33h199v600h-199v-600z" />
    <glyph glyph-name=".null" horiz-adv-x="0" 
 />
    <glyph glyph-name="nonmarkingreturn" horiz-adv-x="333" 
 />
    <glyph glyph-name="uni270E" unicode="&#x270e;" horiz-adv-x="867" 
d="M810 566l-46 -46q4 6 7.5 17t-4.5 43t-41 64q-28 28 -59 37t-47 4l-18 -5l49 49q33 33 82 34t81 -32q36 -35 34 -82t-38 -83zM725 481l-493 -492l-210 -51l-3 3l55 210l492 490q30 9 60 3l-522 -523l-15 -55l60 -60l56 15l25 24l2 56l-40 40l479 479q8 -6 15 -15
q32 -31 42 -62t3 -45z" />
    <glyph glyph-name="uniE054" unicode="&#xe054;" horiz-adv-x="1000" 
d="M0 375q0 206 114 293q39 30 71 45.5t84 27.5q49 12 163 21l37 -176q-95 -19 -147 -51q-66 -40 -58 -130h131v-467h-395v437zM529 -62v437q0 135 54 226q19 33 56.5 64t76.5 48q28 13 78.5 26t85.5 16q10 1 37.5 3t43.5 4l39 -176q-55 -11 -84.5 -20.5t-63.5 -30.5
q-63 -39 -59 -130h131v-467h-395z" />
    <glyph glyph-name="uniE712" unicode="&#xe712;" horiz-adv-x="930" 
d="M915 10q-86 152 -208 197q-121 45 -330 45v-218l-362 334l362 322v-192q88 0 166.5 -27t132.5 -70q110 -88 165 -199q57 -117 68 -164z" />
    <glyph glyph-name="uniE717" unicode="&#xe717;" horiz-adv-x="1101" 
d="M51 350q-14 0 -25 11t-11 25q0 15 8 23l179 214q10 12 27 12t28 -12l178 -214q9 -9 9 -23t-11 -25t-25 -11h-107v-214h321q10 0 14 -6l89 -108q4 -5 4 -11q0 -7 -5.5 -12.5t-12.5 -5.5h-535q-18 0 -18 22v335h-107zM372 618q0 8 5 13t13 5h536q18 0 18 -23v-334h107
q14 0 24.5 -11t10.5 -25q0 -15 -8 -23l-179 -214q-10 -13 -27 -13t-27 13l-179 214q-8 8 -8 23q0 14 11 25t25 11h107v214h-322q-9 0 -14 7l-89 107q-4 4 -4 11z" />
    <glyph glyph-name="uniE735" unicode="&#xe735;" horiz-adv-x="996" 
d="M978 721v-631q0 -44 -33 -77.5t-73 -33.5h-717q-136 0 -136 159v461h132v122h827zM151 531h-65v-393q0 -86 32 -86q33 0 33 86v393zM910 654h-691v-516q0 -54 -19 -92h672q17 0 27.5 14.5t10.5 29.5v564zM485 202h-159v23h159v-23zM485 131h-159v23h159v-23zM548 439h266
v-254h-266v254zM485 342h-159v23h159v-23zM485 271h-159v23h159v-23zM485 416h-159v23h159v-23zM350 511v44h416v-44h-416z" />
    <glyph glyph-name="uniE800" unicode="&#xe800;" horiz-adv-x="932" 
d="M2 460q12 37 101 37h226l69 207v1q19 57 43 76q26 20 50 0q25 -20 43 -76q12 -35 35 -104t34 -104h225q50 0 82 -14.5t18 -48.5q-12 -30 -59 -63q-30 -22 -91 -65.5t-91 -65.5l68 -207l2 -2q27 -84 -5 -108q-30 -22 -107 30q-60 42 -180 128l-179 -128l-2 -2
q-73 -52 -105 -28t-4 108l1 1v2l68 206l-177 127l-2 2l-2 2q-73 52 -61 89z" />
  </font>
</defs></svg>
